URL	EMAIL	COST
http:://www.youtube.com/user/djearworm	Booking@djearworm.com	$400 
http://www.youtube.com/user/boburnham	bo@boburnham.com	$400 
http://www.youtube.com/user/michaeljacksonvevo	Now@MichaelJackson.com	$400 
http://www.youtube.com/user/baracksdubs	baracksdubs@gmail.com	$400 
http://www.youtube.com/user/nigahiga	Media@HigaTV.com	$400 
http://www.youtube.com/user/magicofrahat	MagicofRahat@yahoo.com	$400 
http://www.youtube.com/user/jennamarbles	jennamarblesbusiness@gmail.com	$400 
http://www.youtube.com/user/sophiagracebrownlee	Dombrown@btinternet.com	$400 
http://www.youtube.com/user/epicwinplanet	epicwinplanet@gmail.com	$400 
http://www.youtube.com/user/failarmy	licensing@chiwayentertainment.com	$400 
http://www.youtube.com/user/vsauce	Michael@Vsauce.com	$400 
http://www.youtube.com/user/treejtv	peterschwartz@theagencygroup.com	$400 
http://www.youtube.com/user/portadosfundos	contato@portadosfundos.com.br	$400 
http://www.youtube.com/user/kurthugoschneider	KurtHugoSchneiderMusic@yahoo.com	$400 
